IPJ - Datajournalisme
…
```
## ── Column specification ────────────────────────────────────────────────────────
## Delimiter: ","
## dbl  (4): tx_incid, R, taux_occupation_sae, tx_pos
## date (1): extract_date
```

```
## 
## ℹ Use `spec()` to retrieve the full column specification for this data.
## ℹ Specify the column types or set `show_col_types = FALSE` to quiet this message.
```

```
## # A tibble: 602 × 5
##    extract_date tx_incid     R taux_occupation_sae tx_pos
##    <date>          <dbl> <dbl>               <dbl>  <dbl>
##  1 2020-03-18      NA       NA                15.2     NA
##  2 2020-03-19       5.57    NA                19.8     NA
##  3 2020-03-20       8.40    NA                25.6     NA
##  4 2020-03-21      11.0     NA                28.7     NA
##  5 2020-03-22      13.6     NA                33.1     NA
##  6 2020-03-23      18.3     NA                41.1     NA
##  7 2020-03-24      23.9     NA                49.5     NA
##  8 2020-03-25      30.1     NA                58       NA
##  9 2020-03-26      32.9     NA                66.3     NA
## 10 2020-03-27      36.9     NA                74.3     NA
## # … with 592 more rows
```
…
```
## ── Column specification ────────────────────────────────────────────────────────
## Delimiter: ","
## chr (1): dep;jour;incid_hosp;incid_rea;incid_dc;incid_rad
```

```
## 
## ℹ Use `spec()` to retrieve the full column specification for this data.
## ℹ Specify the column types or set `show_col_types = FALSE` to quiet this message.
```

```
## # A tibble: 60,588 × 1
##    `dep;jour;incid_hosp;incid_rea;incid_dc;incid_rad`
##    <chr>                                             
##  1 01;2020-03-19;1;0;0;0                             
##  2 01;2020-03-20;0;0;0;1                             
##  3 01;2020-03-21;3;0;0;0                             
##  4 01;2020-03-22;3;1;0;1                             
##  5 01;2020-03-23;14;1;0;5                            
##  6 01;2020-03-24;11;1;0;4                            
##  7 01;2020-03-25;13;2;0;5                            
##  8 01;2020-03-26;14;3;2;2                            
##  9 01;2020-03-27;14;2;0;0                            
## 10 01;2020-03-28;7;3;1;3                             
## # … with 60,578 more rows
```
…
